Rear Stalls,DD,36--37,2,SE Entrance
Rear Stalls,AA,30--33,4,SE Entrance
Rear Stalls,DD,31--35,5,SE Entrance
Rear Stalls,FF,18--22,5,SE Entrance
Rear Stalls,JJ,17--24,8,SE Entrance
Rear Stalls,MM,1--10,10,SE Entrance
Rear Stalls,MM,42--51,10,SE Entrance
Rear Stalls,NN,8--10,3,SE Entrance
Rear Stalls,EE,1--4,4,SE Entrance
Rear Stalls,FF,1--7,7,SE Entrance
Rear Stalls,AB,1--7,7,SE Entrance
