C5,11,62--59,4,SE Entrance
C5,13,62--59,4,SE Entrance
C5,15,62--59,4,SE Entrance
C5,3,62--59,4,SE Entrance
C5,5,62--59,4,SE Entrance
C5,7,62--59,4,SE Entrance
C5,9,62--59,4,SE Entrance
D2,2,21--6,16,NE Entrance
D2,4,21--6,16,NE Entrance
D2,6,21--6,16,NE Entrance
D2,8,21--6,16,NE Entrance
D3,2,40--23,18,NE Entrance
D3,4,40--23,18,NE Entrance
D3,6,40--23,18,NE Entrance
D3,8,40--23,18,NE Entrance
D4,3,57--42,16,SE Entrance
D4,5,57--42,16,SE Entrance
D4,7,57--42,16,SE Entrance
N12,E,144--138,7,NE Entrance
N12,H,151--122,30,NE Entrance
S12,D,138--144,7,SE Entrance
S12,F,138--151,14,SE Entrance
S12,H,122--151,30,SE Entrance
