Stalls,O,26--28,3,Stalls Centre
Stalls,V,20--21,2,Stalls Centre
Stalls,H,37--42,6,Stalls Left
Stalls,J,38--44,7,Stalls Left
Stalls,O,38--39,2,Stalls Left
Stalls,O,42--48,7,Stalls Left
Stalls,P,45--46,2,Stalls Left
Stalls,Q,40--46,7,Stalls Left
Stalls,R,42--49,8,Stalls Left
Stalls,T,37--50,14,Stalls Left
Stalls,U,40--41,2,Stalls Left
Stalls,U,44--50,7,Stalls Left
Stalls,V,38--39,2,Stalls Left
Stalls,V,41--48,8,Stalls Left
Stalls,W,39--48,10,Stalls Left
Stalls,O,3--4,2,Stalls Right
Stalls,O,7--12,6,Stalls Right
Stalls,Q,9--10,2,Stalls Right
Stalls,S,3--13,11,Stalls Right
Stalls,T,3--13,11,Stalls Right
Stalls,U,1--10,10,Stalls Right
Stalls,V,1--11,11,Stalls Right
Stalls,W,1--2,2,Stalls Right
Stalls,W,9--13,5,Stalls Right
Royal Circle,J,23--28,6,Royal Circle Centre
Royal Circle,J,30--35,6,Royal Circle Centre
Royal Circle,K,21--23,3,Royal Circle Centre
Royal Circle,K,29--37,9,Royal Circle Centre
Royal Circle,L,20--23,4,Royal Circle Centre
Royal Circle,L,28--34,7,Royal Circle Centre
Royal Circle,G,50--53,4,Royal Circle Left
Royal Circle,H,51--55,5,Royal Circle Left
Royal Circle,I,40--43,4,Royal Circle Left
Royal Circle,I,51--56,6,Royal Circle Left
Royal Circle,J,40--48,9,Royal Circle Left
Royal Circle,J,54--56,3,Royal Circle Left
Royal Circle,K,40--55,16,Royal Circle Left
Royal Circle,L,35--51,17,Royal Circle Left
Royal Circle,E,3--5,3,Royal Circle Right
Royal Circle,G,1--6,6,Royal Circle Right
Royal Circle,I,7--17,11,Royal Circle Right
Royal Circle,J,3--18,16,Royal Circle Right
Royal Circle,K,1--19,19,Royal Circle Right
Royal Circle,L,1--16,16,Royal Circle Right
Grand Circle,D,0--15,16,Grand Circle Right
Grand Circle,E,21--25,5,Grand Circle Centre
Grand Circle,F,26--35,10,Grand Circle Centre
Grand Circle,H,22--23,2,Grand Circle Centre
Grand Circle,H,28--35,8,Grand Circle Centre
Grand Circle,I,20--35,16,Grand Circle Centre
Grand Circle,J,20--36,17,Grand Circle Centre
Grand Circle,K,19--36,18,Grand Circle Centre
Grand Circle,C,38--50,13,Grand Circle Left
Grand Circle,E,36--42,7,Grand Circle Left
Grand Circle,F,38--55,18,Grand Circle Left
Grand Circle,H,36--54,19,Grand Circle Left
Grand Circle,I,36--54,19,Grand Circle Left
Grand Circle,J,37--42,6,Grand Circle Left
Grand Circle,J,49--55,7,Grand Circle Left
Grand Circle,K,37--54,18,Grand Circle Left
Grand Circle,L,42--59,18,Grand Circle Left
Grand Circle,M,41--57,17,Grand Circle Left
Grand Circle,C,2--18,17,Grand Circle Right
Grand Circle,E,1--6,6,Grand Circle Right
Grand Circle,E,9--17,9,Grand Circle Right
Grand Circle,F,1--2,2,Grand Circle Right
Grand Circle,F,5--18,14,Grand Circle Right
Grand Circle,H,8--19,12,Grand Circle Right
Grand Circle,I,1--19,19,Grand Circle Right
Grand Circle,J,1--19,19,Grand Circle Right
Grand Circle,K,1--18,18,Grand Circle Right
Grand Circle,L,1--18,18,Grand Circle Right
