Rear Stalls,DD,36--37,2,NA
Rear Stalls,AA,30--33,4,NA
Rear Stalls,DD,31--35,5,NA
Rear Stalls,FF,18--22,5,NA
Rear Stalls,JJ,17--24,8,NA
Rear Stalls,MM,1--10,10,NA
Rear Stalls,MM,42--51,10,NA
Rear Stalls,NN,8--10,3,NA
Rear Stalls,EE,1--4,4,NA
Rear Stalls,EE,48--51,4,NA
Rear Stalls,FF,1--7,7,NA
Rear Stalls,FF,46--51,6,NA
Rear Stalls,GG,1--8,8,NA
Rear Stalls,HH,1--12,12,NA
Rear Stalls,HH,48--51,4,NA
Rear Stalls,JJ,38--51,14,NA
Rear Stalls,KK,11--14,4,NA
Rear Stalls,KK,38--51,14,NA
Rear Stalls,MM,11--14,4,NA
Rear Stalls,MM,17--26,10,NA
Rear Stalls,MM,27--35,9,NA
Rear Stalls,MM,38--41,4,NA
Rear Stalls,NN,11--14,4,NA
