D3,11,28--27,2,NE Entrance
D3,11,32--31,2,NE Entrance
D3,11,36--35,2,NE Entrance
D3,13,32--27,6,NE Entrance
D3,19,28--25,4,NE Entrance
D3,20,26--25,2,NE Entrance
D3,20,30--29,2,NE Entrance
D3,20,34--33,2,NE Entrance
D3,20,38--37,2,NE Entrance
D3,21,31--27,5,NE Entrance
D3,21,35--34,2,NE Entrance
D3,5,24--23,2,NE Entrance
D3,5,28--27,2,NE Entrance
D3,7,30--29,2,NE Entrance
D3,9,28--25,4,NE Entrance
D4,4,53--50,4,SE Entrance
D4,5,52--51,2,SE Entrance
D4,6,51--46,6,SE Entrance
D4,7,45--44,2,SE Entrance
N9,L,108--103,6,NE Entrance
S7,P,73--81,9,SW Entrance
S7,R,69--79,11,SW Entrance
S7,T,72--81,10,SW Entrance
S7,V,69--78,10,SW Entrance
S9,M,96--103,8,SE Entrance
S9,N,111--114,4,SE Entrance
S9,O,104--108,5,SE Entrance
S9,P,111--120,10,SE Entrance
S9,Q,102--108,7,SE Entrance
S9,R,111--120,10,SE Entrance
S9,S,96--105,10,SE Entrance
S9,T,111--120,10,SE Entrance
S9,U,99--108,10,SE Entrance
S13,M,153--162,10,SE Entrance
S13,N,150--159,10,SE Entrance
S13,O,158--162,5,SE Entrance
S14,E,152--163,12,SE Entrance
S14,G,152--159,8,SE Entrance
S13,O,150--155,6,SE Entrance
S13,P,150--159,10,SE Entrance
S13,Q,155--162,8,SE Entrance
S13,R,150--158,9,SE Entrance
S13,S,150--162,13,SE Entrance
S13,T,150--159,10,SE Entrance
S13,U,152--162,11,SE Entrance
S13,V,150--162,13,SE Entrance
